CPI Colombia
…
Then we load the core inflation data:

datacore = read_excel("IPC_2020_2024_sinAliniReg.xlsx")

datacore

# A tibble: 60 × 3
     Año   Mes Inflacion_core
   <dbl> <dbl>          <dbl>
 1  2020     1           3.04
 2  2020     2           3   
 3  2020     3           2.99
 4  2020     4           2.51
 5  2020     5           2.03
 6  2020     6           1.65
 7  2020     7           1.66
 8  2020     8           1.57
 9  2020     9           1.67
10  2020    10           1.55
# ℹ 50 more rows

Now we are going to reshape the total inflation’s database in order to represent individual values by a single row (stacked). In addition, because of symmetry we are going to represent the year variable as a numeric type with the names_transform function of pivot_longer:

data = pivot_longer(data, cols = 2:7, names_to = "Año",
                    values_to = "Inflacion_total",
                    names_transform = list("Año" = as.numeric))

data

# A tibble: 72 × 3
     Mes   Año Inflacion_total
   <dbl> <dbl>           <dbl>
 1     1  2020            3.62
 2     1  2021            1.60
 3     1  2022            6.94
 4     1  2023           13.3 
 5     1  2024            8.35
 6     1  2025            5.22
 7     2  2020            3.72
 8     2  2021            1.56
 9     2  2022            8.00
10     2  2023           13.3 
# ℹ 62 more rows
…
str(datacore)

tibble [60 × 3] (S3: tbl_df/tbl/data.frame)
 $ Año           : num [1:60] 2020 2020 2020 2020 2020 2020 2020 2020 2020 2020 ...
 $ Mes           : num [1:60] 1 2 3 4 5 6 7 8 9 10 ...
 $ Inflacion_core: num [1:60] 3.04 3 2.99 2.51 2.03 1.65 1.66 1.57 1.67 1.55 ...

Since core inflation’s data is lagged 1 period regarding to total inflation, we are joining both databases with left_join function of dplyr:

data2 = left_join(data, datacore, by = join_by(Año, Mes))

data2

# A tibble: 72 × 4
     Mes   Año Inflacion_total Inflacion_core
   <dbl> <dbl>           <dbl>          <dbl>
 1     1  2020            3.62           3.04
 2     1  2021            1.60           0.87
 3     1  2022            6.94           3.47
 4     1  2023           13.3            9.77
 5     1  2024            8.35           7.82
 6     1  2025            5.22          NA   
 7     2  2020            3.72           3   
 8     2  2021            1.56           0.96
 9     2  2022            8.00           4.11
10     2  2023           13.3           10.0 
# ℹ 62 more rows

As before, we are reshaping the data to the long or stacked format:

data2 = pivot_longer(data2, cols = 3:4, names_to = "Inflation_type",
                     values_to = "value")

data2

# A tibble: 144 × 4
     Mes   Año Inflation_type  value
   <dbl> <dbl> <chr>           <dbl>
 1     1  2020 Inflacion_total  3.62
 2     1  2020 Inflacion_core   3.04
 3     1  2021 Inflacion_total  1.60
 4     1  2021 Inflacion_core   0.87
 5     1  2022 Inflacion_total  6.94
 6     1  2022 Inflacion_core   3.47
 7     1  2023 Inflacion_total 13.3 
 8     1  2023 Inflacion_core   9.77
 9     1  2024 Inflacion_total  8.35
10     1  2024 Inflacion_core   7.82
# ℹ 134 more rows
…
